M48
; DRILL file {KiCad 7.0.9-7.0.9~ubuntu22.04.1} date Sun Dec 17 09:36:10 2023
; FORMAT={-:-/ absolute / metric / decimal}
; #@! TF.CreationDate,2023-12-17T09:36:10-05:00
; #@! TF.GenerationSoftware,Kicad,Pcbnew,7.0.9-7.0.9~ubuntu22.04.1
; #@! TF.FileFunction,MixedPlating,1,2
FMAT,2
METRIC
; #@! TA.AperFunction,Plated,PTH,ComponentDrill
T1C0.600
; #@! TA.AperFunction,Plated,PTH,ComponentDrill
T2C3.200
; #@! TA.AperFunction,NonPlated,NPTH,ComponentDrill
T3C5.000
%
G90
G05
T1
X106.4Y-25.0
X106.4Y-50.0
X106.4Y-75.0
X106.4Y-100.0
X106.4Y-150.0
X106.4Y-175.0
X106.6Y-125.2
X108.1Y-29.2
X108.1Y-54.2
X108.1Y-79.2
X108.1Y-104.2
X108.1Y-154.2
X108.1Y-179.2
X108.2Y-20.7
X108.2Y-45.7
X108.2Y-70.7
X108.2Y-95.7
X108.2Y-145.7
X108.2Y-170.7
X108.3Y-129.4
X108.4Y-120.9
X112.5Y-18.9
X112.5Y-31.1
X112.5Y-43.9
X112.5Y-56.1
X112.5Y-68.9
X112.5Y-81.1
X112.5Y-93.9
X112.5Y-106.1
X112.5Y-143.9
X112.5Y-156.1
X112.5Y-168.9
X112.5Y-181.1
X112.7Y-119.1
X112.7Y-131.3
X116.8Y-20.7
X116.8Y-29.3
X116.8Y-45.7
X116.8Y-54.3
X116.8Y-70.7
X116.8Y-79.3
X116.8Y-95.7
X116.8Y-104.3
X116.8Y-145.7
X116.8Y-154.3
X116.8Y-170.7
X116.8Y-179.3
X117.0Y-120.9
X117.0Y-129.5
X118.6Y-25.0
X118.6Y-50.0
X118.6Y-75.0
X118.6Y-100.0
X118.6Y-150.0
X118.6Y-175.0
X118.8Y-125.2
X131.4Y-100.0
X131.4Y-125.0
X131.4Y-150.0
X131.4Y-175.0
X133.0Y-75.0
X133.1Y-104.2
X133.1Y-129.2
X133.1Y-154.2
X133.1Y-179.2
X133.2Y-95.7
X133.2Y-120.7
X133.2Y-145.7
X133.2Y-170.7
X134.3Y-71.8
X134.3Y-78.2
X137.5Y-70.5
X137.5Y-79.5
X137.5Y-93.9
X137.5Y-106.1
X137.5Y-118.9
X137.5Y-131.1
X137.5Y-143.9
X137.5Y-156.1
X137.5Y-168.9
X137.5Y-181.1
X140.6Y-78.3
X140.7Y-71.8
X141.8Y-95.7
X141.8Y-104.3
X141.8Y-120.7
X141.8Y-129.3
X141.8Y-145.7
X141.8Y-154.3
X141.8Y-170.7
X141.8Y-179.3
X142.0Y-75.0
X143.6Y-100.0
X143.6Y-125.0
X143.6Y-150.0
X143.6Y-175.0
X166.4Y-25.0
X166.4Y-50.0
X166.4Y-75.0
X166.4Y-100.0
X166.4Y-125.0
X166.4Y-150.0
X166.4Y-175.0
X168.2Y-20.7
X168.2Y-29.3
X168.2Y-45.7
X168.2Y-54.3
X168.2Y-70.7
X168.2Y-79.3
X168.2Y-95.7
X168.2Y-104.3
X168.2Y-120.7
X168.2Y-129.3
X168.2Y-145.7
X168.2Y-154.3
X168.2Y-170.7
X168.2Y-179.3
X172.5Y-18.9
X172.5Y-31.1
X172.5Y-43.9
X172.5Y-56.1
X172.5Y-68.9
X172.5Y-81.1
X172.5Y-93.9
X172.5Y-106.1
X172.5Y-118.9
X172.5Y-131.1
X172.5Y-143.9
X172.5Y-156.1
X172.5Y-168.9
X172.5Y-181.1
X176.7Y-29.4
X176.7Y-54.4
X176.7Y-79.4
X176.7Y-104.4
X176.7Y-129.4
X176.7Y-154.4
X176.7Y-179.4
X176.8Y-20.7
X176.8Y-45.7
X176.8Y-70.7
X176.8Y-95.7
X176.8Y-120.7
X176.8Y-145.7
X176.8Y-170.7
X178.6Y-25.0
X178.6Y-50.0
X178.6Y-75.0
X178.6Y-100.0
X178.6Y-125.0
X178.6Y-150.0
X178.6Y-175.0
X191.4Y-100.0
X191.4Y-125.0
X191.4Y-150.0
X191.4Y-175.0
X193.2Y-95.7
X193.2Y-104.3
X193.2Y-120.7
X193.2Y-129.3
X193.2Y-145.7
X193.2Y-154.3
X193.2Y-170.7
X193.2Y-179.3
X197.5Y-93.9
X197.5Y-106.1
X197.5Y-118.9
X197.5Y-131.1
X197.5Y-143.9
X197.5Y-156.1
X197.5Y-168.9
X197.5Y-181.1
X201.7Y-104.4
X201.7Y-129.4
X201.7Y-154.4
X201.7Y-179.4
X201.8Y-95.7
X201.8Y-120.7
X201.8Y-145.7
X201.8Y-170.7
X203.6Y-100.0
X203.6Y-125.0
X203.6Y-150.0
X203.6Y-175.0
T3
X125.0Y-20.0
X125.0Y-45.0
X125.0Y-70.0
X125.0Y-95.0
X125.0Y-105.0
X125.0Y-120.0
X125.0Y-130.0
X125.0Y-145.0
X125.0Y-155.0
X125.0Y-170.0
X125.0Y-180.0
X185.0Y-20.0
X185.0Y-45.0
X185.0Y-70.0
X185.0Y-95.0
X185.0Y-105.0
X185.0Y-120.0
X185.0Y-130.0
X185.0Y-145.0
X185.0Y-155.0
X185.0Y-170.0
X185.0Y-180.0
T2
X103.0Y-3.0G85X105.8Y-3.0
G05
X103.0Y-197.0G85X105.8Y-197.0
G05
X147.0Y-3.0G85X144.2Y-3.0
G05
X147.0Y-197.0G85X144.2Y-197.0
G05
X163.0Y-3.0G85X165.8Y-3.0
G05
X163.0Y-197.0G85X165.8Y-197.0
G05
X207.0Y-3.0G85X204.2Y-3.0
G05
X207.0Y-197.0G85X204.2Y-197.0
G05
T0
M30
